Toronto Apartment Air Conditioning Type - A Hugo website
…
package <- show_package("2b98b3f3-4f3a-42a4-a4e9-b44d3026595a")
package
## # A tibble: 1 x 10
##   title id    topics civic_issues excerpt dataset_category num_resources formats
##   <chr> <chr> <chr>  <chr>        <chr>   <chr>                    <int> <chr>  
## 1 Apar… 2b98… <NA>   <NA>         <NA>    <NA>                         1 <NA>   
## # … with 2 more variables: refresh_rate <chr>, last_refreshed <date>
 
resources <- list_package_resources("2b98b3f3-4f3a-42a4-a4e9-b44d3026595a")
 
datastore_resources <- filter(resources, tolower(format) %in% c('csv', 'geojson'))
 
data <- filter(datastore_resources, row_number()==1) %>% get_resource()
data
## # A tibble: 3,458 x 70
##    `_id` AIR_CONDITIONIN… AMENITIES_AVAIL… ANNUAL_FIRE_ALA… ANNUAL_FIRE_PUM…
##    <int> <chr>            <chr>            <lgl>            <lgl>           
##  1 27637 INDIVIDUAL UNITS <NA>             NA               NA              
##  2 27638 NONE             Indoor exercise… NA               NA              
##  3 27639 NONE             <NA>             NA               NA              
##  4 27640 <NA>             <NA>             NA               NA              
##  5 27641 NONE             <NA>             NA               NA              
##  6 27642 NONE             <NA>             NA               NA              
##  7 27643 NONE             <NA>             NA               NA              
##  8 27644 CENTRAL AIR      Indoor pool , I… NA               NA              
##  9 27645 NONE             Outdoor rec fac… NA               NA              
## 10 27646 NONE             <NA>             NA               NA              
## # … with 3,448 more rows, and 65 more variables:
## #   APPROVED_FIRE_SAFETY_PLAN <lgl>, BALCONIES <chr>,
## #   BARRIER_FREE_ACCESSIBILTY_ENTR <chr>, BIKE_PARKING <chr>,
## #   CONFIRMED_STOREYS <lgl>, CONFIRMED_UNITS <lgl>,
## #   DATE_OF_LAST_INSPECTION_BY_TSSA <lgl>,
## #   DESCRIPTION_OF_CHILD_PLAY_AREA <lgl>,
## #   DESCRIPTION_OF_INDOOR_EXERCISE_ROOM <lgl>,
## #   DESCRIPTION_OF_OUTDOOR_REC_FACILITIES <lgl>, ELEVATOR_PARTS_REPLACED <lgl>,
## #   ELEVATOR_STATUS <lgl>, EMERG_POWER_SUPPLY_TEST_RECORDS <lgl>,
…
